<?xml version="1.0" encoding="UTF-8" standalone="no"?>
<svg
   version="1.0"
   width="1280.000000pt"
   height="1280.000000pt"
   viewBox="0 0 1280.000000 1280.000000"
   preserveAspectRatio="xMidYMid meet"
   id="svg79"
   sodipodi:docname="stop-recording.svg"
   inkscape:version="1.1.2 (0a00cf5339, 2022-02-04)"
   xmlns:inkscape="http://www.inkscape.org/namespaces/inkscape"
   xmlns:sodipodi="http://sodipodi.sourceforge.net/DTD/sodipodi-0.dtd"
   xmlns="http://www.w3.org/2000/svg"
   xmlns:svg="http://www.w3.org/2000/svg">
  <defs
     id="defs83" />
  <sodipodi:namedview
     id="namedview81"
     pagecolor="#ffffff"
     bordercolor="#666666"
     borderopacity="1.0"
     inkscape:pageshadow="2"
     inkscape:pageopacity="0.0"
     inkscape:pagecheckerboard="0"
     inkscape:document-units="pt"
     showgrid="false"
     inkscape:zoom="0.45820313"
     inkscape:cx="416.84569"
     inkscape:cy="854.42455"
     inkscape:window-width="1846"
     inkscape:window-height="1016"
     inkscape:window-x="0"
     inkscape:window-y="0"
     inkscape:window-maximized="1"
     inkscape:current-layer="svg79" />
  <g
     transform="translate(0.000000,1280.000000) scale(0.100000,-0.100000)"
     fill="#f44336"
     stroke="none"
     id="g77">
    <path
       d="M6320 10469 c-390 -37 -606 -77 -890 -161 -824 -245 -1584 -790 -2073 -1486 -179 -254 -351 -573 -455 -839 -361 -925 -358 -1953 7 -2880 352 -893 1050 -1648 1916 -2073 495 -242 950 -360 1552 -401 194 -13 411 -4 663 27 869 107 1674 499 2296 1120 613 612 1010 1417 1118 2269 38 303 44 511 21 805 -86 1128 -644 2147 -1551 2831 -437 331 -925 560 -1464 688 -367 88 -840 129 -1140 100z"
       id="path75" />
  </g>
  <rect
     style="fill:#ffffff;fill-opacity:1;fill-rule:evenodd;stroke-width:0.75"
     id="rect283"
     width="381.48975"
     height="361.34909"
     x="464.39258"
     y="447.74298" />
</svg>
