<?xml version="1.0" encoding="UTF-8" standalone="no"?>
<!-- Generator: Adobe Illustrator 15.0.2, SVG Export Plug-In . SVG Version: 6.00 Build 0)  -->

<svg
   xmlns:dc="http://purl.org/dc/elements/1.1/"
   xmlns:cc="http://creativecommons.org/ns#"
   xmlns:rdf="http://www.w3.org/1999/02/22-rdf-syntax-ns#"
   xmlns:svg="http://www.w3.org/2000/svg"
   xmlns="http://www.w3.org/2000/svg"
   xmlns:sodipodi="http://sodipodi.sourceforge.net/DTD/sodipodi-0.dtd"
   xmlns:inkscape="http://www.inkscape.org/namespaces/inkscape"
   version="1.1"
   id="Layer_1"
   x="0px"
   y="0px"
   width="48"
   height="32"
   viewBox="0 0 48 31.999999"
   enable-background="new 0 0 512 341.333"
   xml:space="preserve"
   inkscape:version="0.48.4 r9939"
   sodipodi:docname="video.svg"><metadata
     id="metadata3039"><rdf:RDF><cc:Work
         rdf:about=""><dc:format>image/svg+xml</dc:format><dc:type
           rdf:resource="http://purl.org/dc/dcmitype/StillImage" /><dc:title></dc:title></cc:Work></rdf:RDF></metadata><defs
     id="defs3037" /><sodipodi:namedview
     pagecolor="#ffffff"
     bordercolor="#666666"
     borderopacity="1"
     objecttolerance="10"
     gridtolerance="10"
     guidetolerance="10"
     inkscape:pageopacity="0"
     inkscape:pageshadow="2"
     inkscape:window-width="1420"
     inkscape:window-height="932"
     id="namedview3035"
     showgrid="false"
     fit-margin-top="0"
     fit-margin-left="0"
     fit-margin-right="0"
     fit-margin-bottom="0"
     inkscape:zoom="3.9082069"
     inkscape:cx="160.39829"
     inkscape:cy="69.345436"
     inkscape:window-x="75"
     inkscape:window-y="34"
     inkscape:window-maximized="0"
     inkscape:current-layer="Layer_1" /><path
     d="M 33.718165,13.044814 V 5.8308737 c 0,-1.1336574 -0.927941,-2.0610845 -2.061239,-2.0610845 H 6.9235406 c -1.133657,0 -2.061085,0.9274271 -2.061085,2.0610845 V 26.442018 c 0,1.133215 0.927428,2.061085 2.061085,2.061085 H 31.656926 c 1.133298,0 2.061167,-0.927942 2.061167,-2.061085 v -7.21394 l 8.244483,8.244554 V 4.8003313 l -8.244411,8.2444827 z"
     id="path3033"
     inkscape:connector-curvature="0"
     style="fill:#999999" /></svg>
